<?xml version="1.0" encoding="UTF-8" standalone="no"?>
<svg
   width="130"
   height="26"
   version="1.1"
   id="svg10"
   sodipodi:docname="page-logo.svg"
   inkscape:version="1.3 (0e150ed6c4, 2023-07-21)"
   xmlns:inkscape="http://www.inkscape.org/namespaces/inkscape"
   xmlns:sodipodi="http://sodipodi.sourceforge.net/DTD/sodipodi-0.dtd"
   xmlns="http://www.w3.org/2000/svg"
   xmlns:svg="http://www.w3.org/2000/svg">
  <defs
     id="defs14" />
  <sodipodi:namedview
     id="namedview12"
     pagecolor="#505050"
     bordercolor="#ffffff"
     borderopacity="1"
     inkscape:pageshadow="0"
     inkscape:pageopacity="0"
     inkscape:pagecheckerboard="1"
     showgrid="true"
     width="137px"
     inkscape:current-layer="svg10"
     showguides="true"
     inkscape:guide-bbox="true"
     inkscape:showpageshadow="0"
     inkscape:deskcolor="#d1d1d1">
    <inkscape:grid
       type="xygrid"
       id="grid5602"
       originx="0"
       originy="0"
       spacingy="1"
       spacingx="1"
       units="px"
       visible="true" />
    <sodipodi:guide
       position="60,11"
       orientation="0,-1"
       id="guide140"
       inkscape:locked="false" />
  </sodipodi:namedview>
  <path
     id="text2"
     style="font-weight:900;font-size:18.6667px;line-height:1.25;font-family:Inter;-inkscape-font-specification:'Inter, Heavy';letter-spacing:0px;word-spacing:0px;white-space:pre;fill:#1d212f;fill-opacity:1;stroke-width:0.244531"
     d="m 107.50595,15.066878 v 10.201934 h 3.6038 v -6.783611 h 4.53125 v 6.677628 h 3.76278 V 15.066878 Z m -0.42399,-9.6719489 v 3.2328221 h 8.13505 v 3.8687728 h 3.68331 V 5.3949291 Z M 109.9968,2.109107 c -0.37097,3.3918051 -1.03343,7.7110621 -1.6429,10.413917 h 3.73629 c 0.52996,-2.5703543 1.19243,-6.7306281 1.6429,-10.1224336 z M 106.658,0.7311883 v 3.2593045 h 13.48774 V 0.7311883 Z m -1.05996,9.9369327 v 3.338822 h 15.52815 v -3.338822 z m 3.28582,10.281433 v 3.418306 h 8.95651 V 20.949554 Z M 97.145027,8.4952506 v 2.8618384 h 7.764063 V 8.4952506 Z m 0.159001,-7.6315795 v 2.861838 h 7.658082 V 0.8636711 Z M 97.145027,12.25804 v 2.861838 h 7.764063 V 12.25804 Z M 95.846591,4.5999605 V 7.594299 H 105.88953 V 4.5999605 Z M 98.920413,16.07383 v 2.994338 h 2.967847 v 2.252371 h -2.967847 v 2.994338 h 6.227167 V 16.07383 Z m -1.881386,0 v 9.194982 h 3.206323 V 16.07383 Z M 34.887917,2.7318421 H 8.873814 v 5.2929172 h 3.659984 V 24.353961 h 7.488918 V 8.0247593 h 3.659983 v 9.7975177 c 0.01404,4.729833 2.716842,6.756917 7.263684,6.756917 1.421776,0 2.773159,-0.225233 4.054151,-0.619384 V 18.666893 H 33.3113 c -1.787758,0 -2.181908,-0.506766 -2.195983,-2.027066 V 8.0247593 h 3.7726 z m 14.1895,22.0725859 c 3.857085,0.01404 6.193834,-2.238243 7.151068,-5.011385 h 0.182991 l 0.999476,4.560918 h 5.63075 L 60.521943,13.542892 62.760168,2.7318421 h -5.51815 L 56.383326,6.954909 h -0.154789 c -1.098,-2.8294586 -3.941534,-4.5046001 -7.151067,-4.5046001 -5.250692,0 -9.572301,4.4623754 -9.572301,11.0925831 0,6.644301 4.096392,11.247443 9.572301,11.261536 z m 5.982693,-11.261536 -0.01404,0.05634 c -0.534917,2.632375 -2.266375,5.067684 -4.504618,5.067684 -2.097441,0 -3.547366,-2.153775 -3.547366,-5.2366 0,-2.913925 1.238767,-5.0113842 3.7163,-5.0113842 2.491609,0 3.7726,2.1396832 4.335684,5.0676842 z m 18.229541,10.811069 h 7.263684 C 85.74771,18.38536 88.73201,10.64306 88.999468,2.7318421 h -7.4889 c -0.408242,6.5879836 -1.168392,9.9664509 -3.66,14.1895179 H 77.625334 L 73.008117,2.7318421 H 65.06875 Z" />
</svg>
